{
    "cordova-plugin-whitelist": {
        "source": {
            "type": "registry",
            "id": "cordova-plugin-whitelist@1"
        },
        "is_top_level": true,
        "variables": {}
    },
    "com.salesforce": {
        "source": {
            "type": "git",
            "url": "https://github.com/forcedotcom/SalesforceMobileSDK-CordovaPlugin",
            "subdir": "."
        },
        "is_top_level": true,
        "variables": {}
    },
    "cordova-plugin-device": {
        "source": {
            "type": "registry",
            "id": "cordova-plugin-device"
        },
        "is_top_level": false,
        "variables": {}
    },
    "phonegap-plugin-push": {
        "source": {
            "type": "registry",
            "id": "phonegap-plugin-push"
        },
        "is_top_level": true,
        "variables": {
            "SENDER_ID": "XXXXXXX"
        }
    }
}